<?xml version="1.0" encoding="iso-8859-1"?>
<!-- Generator: Adobe Illustrator 16.0.4, SVG Export Plug-In . SVG Version: 6.00 Build 0)  -->
<!DOCTYPE svg PUBLIC "-//W3C//DTD SVG 1.1//EN" "http://www.w3.org/Graphics/SVG/1.1/DTD/svg11.dtd">
<svg version="1.1" id="Layer_1" xmlns="http://www.w3.org/2000/svg" xmlns:xlink="http://www.w3.org/1999/xlink" x="0px" y="0px"
	 width="28px" height="28px" viewBox="0 0 28 28" style="enable-background:new 0 0 28 28;" xml:space="preserve">
<g id="_x35_02-house.png">
	<g>
		<path d="M12,13c0,1.104,0.896,2,2,2s2-0.896,2-2s-0.896-2-2-2S12,11.896,12,13z M22,8V5V4V3c0-0.552-0.447-1-1-1h-1
			c-0.553,0-1,0.448-1,1v1v1l-5-5L0,14l3,3l1-1v12h7h6h7V16l1,1l3-3L22,8z M22,26h-5v-5c0-1.657-1.343-3-3-3s-3,1.343-3,3v5H6V13
			l8-8l8,8V26z"/>
	</g>
</g>
<g>
</g>
<g>
</g>
<g>
</g>
<g>
</g>
<g>
</g>
<g>
</g>
<g>
</g>
<g>
</g>
<g>
</g>
<g>
</g>
<g>
</g>
<g>
</g>
<g>
</g>
<g>
</g>
<g>
</g>
</svg>
