<?xml version="1.0" encoding="iso-8859-1"?>
<!-- Generator: Adobe Illustrator 16.0.4, SVG Export Plug-In . SVG Version: 6.00 Build 0)  -->
<!DOCTYPE svg PUBLIC "-//W3C//DTD SVG 1.1//EN" "http://www.w3.org/Graphics/SVG/1.1/DTD/svg11.dtd">
<svg version="1.1" id="Layer_1" xmlns="http://www.w3.org/2000/svg" xmlns:xlink="http://www.w3.org/1999/xlink" x="0px" y="0px"
	 width="20px" height="25.5px" viewBox="0 0 20 25.5" style="enable-background:new 0 0 20 25.5;" xml:space="preserve">
<g id="_x35_21-dropzone.png">
	<g>
		<path d="M5.568,11.568l-0.902-0.901L0,13v8l9,4.5v-9.467L2.5,13L5.568,11.568z M15.333,10.667l-0.902,0.901L17.5,13L11,16.033
			V25.5l9-4.5v-8L15.333,10.667z M12,8V0H8v8H4l6,6l6-6H12z"/>
	</g>
</g>
<g>
</g>
<g>
</g>
<g>
</g>
<g>
</g>
<g>
</g>
<g>
</g>
<g>
</g>
<g>
</g>
<g>
</g>
<g>
</g>
<g>
</g>
<g>
</g>
<g>
</g>
<g>
</g>
<g>
</g>
</svg>
