<?xml version="1.0" encoding="iso-8859-1"?>
<!-- Generator: Adobe Illustrator 16.0.4, SVG Export Plug-In . SVG Version: 6.00 Build 0)  -->
<!DOCTYPE svg PUBLIC "-//W3C//DTD SVG 1.1//EN" "http://www.w3.org/Graphics/SVG/1.1/DTD/svg11.dtd">
<svg version="1.1" id="Layer_1" xmlns="http://www.w3.org/2000/svg" xmlns:xlink="http://www.w3.org/1999/xlink" x="0px" y="0px"
	 width="28px" height="20px" viewBox="0 0 28 20" style="enable-background:new 0 0 28 20;" xml:space="preserve">
<g id="_x35_33-helicopter.png">
	<g>
		<path d="M27,16c-1,0-1,1-1,1c0,1-2,1-2,1H10c-0.553,0-1,0.448-1,1c0,0.553,0.447,1,1,1h14c4,0,4-3,4-3S28,16,27,16z M15,16
			c2,0,4,0,7,0s5-1,5-4c0-4-5-7-9-7c-0.759,0-1.415,0.05-2,0.128V2.439C18.869,2.998,27,3,27,3c0.553,0,1-0.447,1-1s-0.447-1-1-1
			c0,0-8.131,0.002-11,0.561V1c0-0.552-0.447-1-1-1s-1,0.448-1,1v0.561C11.131,1.002,3,1,3,1C2.447,1,2,1.447,2,2s0.447,1,1,1
			c0,0,8.131-0.002,11-0.561V5.6C12.411,6.189,12,7,12,7H5.816C5.403,5.838,4.305,5,3,5C1.343,5,0,6.343,0,8s1.343,3,3,3
			c1.356,0,2.489-0.906,2.86-2.142L11,11C11,14,12,16,15,16z M18,7c3.23,0,7,2,7,5c0,1-1.577,1-4,1c-0.211,0-0.368,0-0.503,0
			c0.02,0-0.093,0-0.478,0c-0.008,0-0.012,0-0.02,0C17,13,16,7,18,7z M3,9C2.447,9,2,8.553,2,8s0.447-1,1-1s1,0.447,1,1S3.553,9,3,9
			z"/>
	</g>
</g>
<g>
</g>
<g>
</g>
<g>
</g>
<g>
</g>
<g>
</g>
<g>
</g>
<g>
</g>
<g>
</g>
<g>
</g>
<g>
</g>
<g>
</g>
<g>
</g>
<g>
</g>
<g>
</g>
<g>
</g>
</svg>
