<?xml version="1.0" encoding="iso-8859-1"?>
<!-- Generator: Adobe Illustrator 16.0.4, SVG Export Plug-In . SVG Version: 6.00 Build 0)  -->
<!DOCTYPE svg PUBLIC "-//W3C//DTD SVG 1.1//EN" "http://www.w3.org/Graphics/SVG/1.1/DTD/svg11.dtd">
<svg version="1.1" id="Layer_1" xmlns="http://www.w3.org/2000/svg" xmlns:xlink="http://www.w3.org/1999/xlink" x="0px" y="0px"
	 width="22px" height="28px" viewBox="0 0 22 28" style="enable-background:new 0 0 22 28;" xml:space="preserve">
<g id="_x35_47-washing-machine-1.png">
	<g>
		<path d="M16.5,7C17.328,7,18,6.328,18,5.5S17.328,4,16.5,4S15,4.672,15,5.5S15.672,7,16.5,7z M12.5,7C13.328,7,14,6.328,14,5.5
			S13.328,4,12.5,4S11,4.672,11,5.5S11.672,7,12.5,7z M20,0H2C0.896,0,0,0.896,0,2v24c0,1.104,0.896,2,2,2h18c1.104,0,2-0.896,2-2V2
			C22,0.896,21.104,0,20,0z M20,26H2V2h18V26z M11,23c3.866,0,7-3.134,7-7s-3.134-7-7-7s-7,3.134-7,7S7.134,23,11,23z M11,11
			c2,0,5,2,5,4c-1,1-3,2-5,2s-4-1-5-2C6,13,9,11,11,11z"/>
	</g>
</g>
<g>
</g>
<g>
</g>
<g>
</g>
<g>
</g>
<g>
</g>
<g>
</g>
<g>
</g>
<g>
</g>
<g>
</g>
<g>
</g>
<g>
</g>
<g>
</g>
<g>
</g>
<g>
</g>
<g>
</g>
</svg>
