<?xml version="1.0" encoding="iso-8859-1"?>
<!-- Generator: Adobe Illustrator 16.0.4, SVG Export Plug-In . SVG Version: 6.00 Build 0)  -->
<!DOCTYPE svg PUBLIC "-//W3C//DTD SVG 1.1//EN" "http://www.w3.org/Graphics/SVG/1.1/DTD/svg11.dtd">
<svg version="1.1" id="Layer_1" xmlns="http://www.w3.org/2000/svg" xmlns:xlink="http://www.w3.org/1999/xlink" x="0px" y="0px"
	 width="28px" height="28px" viewBox="0 0 28 28" style="enable-background:new 0 0 28 28;" xml:space="preserve">
<g id="_x35_51-compass.png">
	<g>
		<path d="M22.84,15.664L28,14l-5.16-1.664c-0.68-3.635-3.541-6.496-7.176-7.176L14,0l-1.664,5.16
			c-1.28,0.239-2.455,0.762-3.482,1.48L0,0l6.641,8.854c-0.719,1.026-1.241,2.201-1.48,3.481L0,14l5.16,1.664
			c0.68,3.635,3.541,6.496,7.176,7.176L14,28l1.664-5.16c1.28-0.239,2.455-0.762,3.482-1.48L28,28l-6.641-8.854
			C22.079,18.119,22.601,16.944,22.84,15.664z M14,21c-3.866,0-7-3.134-7-7c0-1.251,0.355-2.409,0.931-3.426L12,16l5.426,4.069
			C16.409,20.645,15.251,21,14,21z M13,14c0-0.553,0.448-1,1-1s1,0.447,1,1s-0.448,1-1,1S13,14.553,13,14z M20.069,17.426L16,12
			l-5.426-4.069C11.591,7.355,12.749,7,14,7c3.866,0,7,3.134,7,7C21,15.251,20.645,16.409,20.069,17.426z"/>
	</g>
</g>
<g>
</g>
<g>
</g>
<g>
</g>
<g>
</g>
<g>
</g>
<g>
</g>
<g>
</g>
<g>
</g>
<g>
</g>
<g>
</g>
<g>
</g>
<g>
</g>
<g>
</g>
<g>
</g>
<g>
</g>
</svg>
