<?xml version="1.0" encoding="iso-8859-1"?>
<!-- Generator: Adobe Illustrator 16.0.4, SVG Export Plug-In . SVG Version: 6.00 Build 0)  -->
<!DOCTYPE svg PUBLIC "-//W3C//DTD SVG 1.1//EN" "http://www.w3.org/Graphics/SVG/1.1/DTD/svg11.dtd">
<svg version="1.1" id="Layer_1" xmlns="http://www.w3.org/2000/svg" xmlns:xlink="http://www.w3.org/1999/xlink" x="0px" y="0px"
	 width="18px" height="28px" viewBox="0 0 18 28" style="enable-background:new 0 0 18 28;" xml:space="preserve">
<g id="_x35_57-passport.png">
	<g>
		<path d="M11,5V0L0,5v23h18V5H11z M9,3v2H4.791L9,3z M11,24H7c-0.553,0-1-0.447-1-1c0-0.552,0.447-1,1-1h4c0.553,0,1,0.448,1,1
			C12,23.553,11.553,24,11,24z M13.478,17.595c-0.044,0.052-0.091,0.102-0.141,0.15c-1.042,1.019-1.488-0.073-1.638,1.527
			c0,0-0.223-0.218-0.372,0c0,0,0.075-0.728,0.372-1.164c0,0-1.19,0.437-1.86-0.291H9.689v0.219c0,0,0.745,0.509,0.596,0.945
			c0,0-0.372,1.019-1.266,1.019c-0.893,0-1.265-1.019-1.265-1.019c-0.149-0.437,0.595-0.945,0.595-0.945v-0.219H8.201
			c-0.67,0.728-1.861,0.291-1.861,0.291c0.298,0.437,0.372,1.164,0.372,1.164c-0.148-0.218-0.372,0-0.372,0
			c-0.148-1.601-0.596-0.509-1.638-1.527c-0.05-0.049-0.096-0.099-0.14-0.15c-0.866-1.024-0.505-2.541-0.009-2.541
			C5.074,15.054,5,15.49,5,15.49c0,1.818,1.34,2.255,1.34,2.255h0.372c0.224-0.582,1.117-0.946,1.117-0.946
			c-2.233,0-2.382-2.182-2.382-3.273c0-1.091-0.968-1.527-0.968-1.527c1.265-0.219,2.605,1.455,2.828,1.601
			c0.224,0.146,0.149,0.437,0.149,0.437s-0.302,0.072-0.298,0.654c0.002,0.424,0.746,0.424,0.746,0.424h0.074
			c0,0,0.074-0.438,0.371-0.656c0.298-0.219,0.446-0.656,0-0.729c0,0-0.371,0-0.223-0.219c0,0,0.074-0.292,0.595-0.219l0.892,0.146
			c0,0,0.149,0.072,0.074,0.291c0,0-0.223,0,0,0.292c0.224,0.292,0.298,1.094,0.298,1.094h0.148c0,0,0.743,0,0.746-0.424
			c0.004-0.582-0.298-0.654-0.298-0.654s-0.074-0.291,0.149-0.437c0.223-0.146,1.562-1.819,2.828-1.601c0,0-0.968,0.437-0.968,1.527
			c0,1.092-0.148,3.273-2.382,3.273c0,0,0.894,0.364,1.116,0.946h0.372c0,0,1.341-0.437,1.341-2.255c0,0-0.075-0.437,0.446-0.437
			C13.982,15.054,14.344,16.57,13.478,17.595z M13,10H5c-0.553,0-1-0.447-1-1s0.447-1,1-1h8c0.553,0,1,0.447,1,1S13.553,10,13,10z"
			/>
	</g>
</g>
<g>
</g>
<g>
</g>
<g>
</g>
<g>
</g>
<g>
</g>
<g>
</g>
<g>
</g>
<g>
</g>
<g>
</g>
<g>
</g>
<g>
</g>
<g>
</g>
<g>
</g>
<g>
</g>
<g>
</g>
</svg>
