<?xml version="1.0" encoding="iso-8859-1"?>
<!-- Generator: Adobe Illustrator 16.0.4, SVG Export Plug-In . SVG Version: 6.00 Build 0)  -->
<!DOCTYPE svg PUBLIC "-//W3C//DTD SVG 1.1//EN" "http://www.w3.org/Graphics/SVG/1.1/DTD/svg11.dtd">
<svg version="1.1" id="Layer_1" xmlns="http://www.w3.org/2000/svg" xmlns:xlink="http://www.w3.org/1999/xlink" x="0px" y="0px"
	 width="28px" height="20px" viewBox="0 0 28 20" style="enable-background:new 0 0 28 20;" xml:space="preserve">
<g id="_x35_62-envelope.png">
	<g>
		<path d="M26,0H2C0.896,0,0,0.896,0,2v16c0,1.104,0.896,2,2,2h24c1.104,0,2-0.896,2-2V2C28,0.896,27.104,0,26,0z M25,2l-11,9L3,2
			H25z M2,4l7.2,6L2,16V4z M3,18l7.973-6.522L14,14l3.027-2.522L25,18H3z M26,16l-7.2-6L26,4V16z"/>
	</g>
</g>
<g>
</g>
<g>
</g>
<g>
</g>
<g>
</g>
<g>
</g>
<g>
</g>
<g>
</g>
<g>
</g>
<g>
</g>
<g>
</g>
<g>
</g>
<g>
</g>
<g>
</g>
<g>
</g>
<g>
</g>
</svg>
