<?xml version="1.0" encoding="iso-8859-1"?>
<!-- Generator: Adobe Illustrator 16.0.4, SVG Export Plug-In . SVG Version: 6.00 Build 0)  -->
<!DOCTYPE svg PUBLIC "-//W3C//DTD SVG 1.1//EN" "http://www.w3.org/Graphics/SVG/1.1/DTD/svg11.dtd">
<svg version="1.1" id="Layer_1" xmlns="http://www.w3.org/2000/svg" xmlns:xlink="http://www.w3.org/1999/xlink" x="0px" y="0px"
	 width="28px" height="22px" viewBox="0 0 28 22" style="enable-background:new 0 0 28 22;" xml:space="preserve">
<g id="_x35_64-camera.png">
	<g>
		<path d="M26,3h-5l-3-3h-8L7,3H2C0.896,3,0,3.896,0,5v4v7v4c0,1.104,0.896,2,2,2h24c1.104,0,2-0.896,2-2V5C28,3.896,27.104,3,26,3z
			 M26,20H2v-2h2c1.104,0,2-0.896,2-2V9c0-1.104-0.896-2-2-2H2V5h5h0.828l0.586-0.586L10.828,2h6.344l2.414,2.414L20.172,5H21h5V20z
			 M14,6c-3.313,0-6,2.687-6,6s2.687,6,6,6s6-2.687,6-6S17.313,6,14,6z M14,16c-2.205,0-4-1.794-4-4s1.795-4,4-4s4,1.794,4,4
			S16.205,16,14,16z M22.5,10c0.828,0,1.5-0.672,1.5-1.5S23.328,7,22.5,7S21,7.672,21,8.5S21.672,10,22.5,10z"/>
	</g>
</g>
<g>
</g>
<g>
</g>
<g>
</g>
<g>
</g>
<g>
</g>
<g>
</g>
<g>
</g>
<g>
</g>
<g>
</g>
<g>
</g>
<g>
</g>
<g>
</g>
<g>
</g>
<g>
</g>
<g>
</g>
</svg>
