<?xml version="1.0" encoding="iso-8859-1"?>
<!-- Generator: Adobe Illustrator 16.0.4, SVG Export Plug-In . SVG Version: 6.00 Build 0)  -->
<!DOCTYPE svg PUBLIC "-//W3C//DTD SVG 1.1//EN" "http://www.w3.org/Graphics/SVG/1.1/DTD/svg11.dtd">
<svg version="1.1" id="Layer_1" xmlns="http://www.w3.org/2000/svg" xmlns:xlink="http://www.w3.org/1999/xlink" x="0px" y="0px"
	 width="22px" height="28px" viewBox="0 0 22 28" style="enable-background:new 0 0 22 28;" xml:space="preserve">
<g id="_x35_88-photobook.png">
	<g>
		<path d="M3,24h19V2c0-1.104-0.896-2-2-2H2C0.896,0,0,0.896,0,2v24c0,1.104,0.896,2,2,2h18c1.104,0,2-0.896,2-2H3
			c-0.553,0-1-0.447-1-1C2,24.448,2.447,24,3,24z M5,5h12v9H5V5z M14,9c0.553,0,1-0.447,1-1s-0.447-1-1-1s-1,0.447-1,1
			S13.447,9,14,9z M12,12L9,9l-3,4h10l-2-2L12,12z"/>
	</g>
</g>
<g>
</g>
<g>
</g>
<g>
</g>
<g>
</g>
<g>
</g>
<g>
</g>
<g>
</g>
<g>
</g>
<g>
</g>
<g>
</g>
<g>
</g>
<g>
</g>
<g>
</g>
<g>
</g>
<g>
</g>
</svg>
