<?xml version="1.0" encoding="iso-8859-1"?>
<!-- Generator: Adobe Illustrator 16.0.4, SVG Export Plug-In . SVG Version: 6.00 Build 0)  -->
<!DOCTYPE svg PUBLIC "-//W3C//DTD SVG 1.1//EN" "http://www.w3.org/Graphics/SVG/1.1/DTD/svg11.dtd">
<svg version="1.1" id="Layer_1" xmlns="http://www.w3.org/2000/svg" xmlns:xlink="http://www.w3.org/1999/xlink" x="0px" y="0px"
	 width="23.907px" height="28px" viewBox="0 0 23.907 28" style="enable-background:new 0 0 23.907 28;" xml:space="preserve">
<g id="_x35_95-diamond-ring.png">
	<g>
		<path d="M12.456,8.316L16,3l-3-3H7L4,3l3.544,5.316C3.211,9.413,0,13.326,0,18c0,5.522,4.478,10,10,10s10-4.478,10-10
			C20,13.326,16.789,9.413,12.456,8.316z M10,26c-4.418,0-8-3.582-8-8s3.582-8,8-8s8,3.582,8,8S14.418,26,10,26z M21.479,2.544
			L20.5,0.052l-0.979,2.492L17.062,3.5l2.46,0.955L20.5,6.886l0.979-2.431L23.907,3.5L21.479,2.544z"/>
	</g>
</g>
<g>
</g>
<g>
</g>
<g>
</g>
<g>
</g>
<g>
</g>
<g>
</g>
<g>
</g>
<g>
</g>
<g>
</g>
<g>
</g>
<g>
</g>
<g>
</g>
<g>
</g>
<g>
</g>
<g>
</g>
</svg>
