<?xml version="1.0" encoding="iso-8859-1"?>
<!-- Generator: Adobe Illustrator 16.0.4, SVG Export Plug-In . SVG Version: 6.00 Build 0)  -->
<!DOCTYPE svg PUBLIC "-//W3C//DTD SVG 1.1//EN" "http://www.w3.org/Graphics/SVG/1.1/DTD/svg11.dtd">
<svg version="1.1" id="Layer_1" xmlns="http://www.w3.org/2000/svg" xmlns:xlink="http://www.w3.org/1999/xlink" x="0px" y="0px"
	 width="16px" height="22px" viewBox="0 0 16 22" style="enable-background:new 0 0 16 22;" xml:space="preserve">
<g id="_x36_14-sound-1.png">
	<g>
		<path d="M2,6C0.896,6,0,6.896,0,8v6c0,1.104,0.896,2,2,2h2l6,6V0L4,6H2z M13.228,6.546l-0.892,1.781C13.319,8.82,14,9.826,14,11
			s-0.681,2.18-1.664,2.673l0.892,1.781C14.865,14.634,16,12.957,16,11S14.865,7.367,13.228,6.546z"/>
	</g>
</g>
<g>
</g>
<g>
</g>
<g>
</g>
<g>
</g>
<g>
</g>
<g>
</g>
<g>
</g>
<g>
</g>
<g>
</g>
<g>
</g>
<g>
</g>
<g>
</g>
<g>
</g>
<g>
</g>
<g>
</g>
</svg>
