<?xml version="1.0" encoding="iso-8859-1"?>
<!-- Generator: Adobe Illustrator 16.0.4, SVG Export Plug-In . SVG Version: 6.00 Build 0)  -->
<!DOCTYPE svg PUBLIC "-//W3C//DTD SVG 1.1//EN" "http://www.w3.org/Graphics/SVG/1.1/DTD/svg11.dtd">
<svg version="1.1" id="Layer_1" xmlns="http://www.w3.org/2000/svg" xmlns:xlink="http://www.w3.org/1999/xlink" x="0px" y="0px"
	 width="28px" height="28px" viewBox="0 0 28 28" style="enable-background:new 0 0 28 28;" xml:space="preserve">
<g id="_x36_22-dice-2.png">
	<g>
		<path d="M8,18c-1.104,0-2,0.896-2,2s0.896,2,2,2s2-0.896,2-2S9.104,18,8,18z M23,0H5C2.239,0,0,2.238,0,5v18c0,2.762,2.239,5,5,5
			h18c2.761,0,5-2.238,5-5V5C28,2.238,25.761,0,23,0z M26,23c0,1.654-1.346,3-3,3H5c-1.654,0-3-1.346-3-3V5c0-1.654,1.346-3,3-3h18
			c1.654,0,3,1.346,3,3V23z M20,6c-1.104,0-2,0.896-2,2s0.896,2,2,2s2-0.896,2-2S21.104,6,20,6z"/>
	</g>
</g>
<g>
</g>
<g>
</g>
<g>
</g>
<g>
</g>
<g>
</g>
<g>
</g>
<g>
</g>
<g>
</g>
<g>
</g>
<g>
</g>
<g>
</g>
<g>
</g>
<g>
</g>
<g>
</g>
<g>
</g>
</svg>
