<?xml version="1.0" encoding="iso-8859-1"?>
<!-- Generator: Adobe Illustrator 16.0.4, SVG Export Plug-In . SVG Version: 6.00 Build 0)  -->
<!DOCTYPE svg PUBLIC "-//W3C//DTD SVG 1.1//EN" "http://www.w3.org/Graphics/SVG/1.1/DTD/svg11.dtd">
<svg version="1.1" id="Layer_1" xmlns="http://www.w3.org/2000/svg" xmlns:xlink="http://www.w3.org/1999/xlink" x="0px" y="0px"
	 width="28px" height="24px" viewBox="0 0 28 24" style="enable-background:new 0 0 28 24;" xml:space="preserve">
<g id="_x36_44-coversation.png">
	<g>
		<path d="M20,6c-0.479,0-0.943,0.053-1.399,0.123C17.452,2.588,13.822,0,9.5,0C4.254,0,0,3.806,0,8.5
			c0,2.113,0.868,4.043,2.294,5.53L2,22l6.166-5.094C8.603,16.962,9.046,17,9.5,17c1.251,0,2.435-0.237,3.528-0.631
			C14.392,18.523,16.985,20,20,20c0.248,0,0.493-0.012,0.735-0.031L25,24l0.182-5.677c0.088-0.065,0.181-0.128,0.266-0.197
			C27.018,16.848,28,15.023,28,13C28,9.135,24.419,6,20,6z M13.38,9.071c-0.005,0.007-0.012,0.014-0.017,0.021
			c-0.271,0.352-0.501,0.728-0.695,1.12c-0.035,0.07-0.061,0.144-0.093,0.214c-0.143,0.316-0.258,0.642-0.347,0.978
			c-0.028,0.107-0.059,0.213-0.082,0.322C12.06,12.141,12,12.563,12,13c0,0.433,0.058,0.861,0.147,1.283
			c0.014,0.063,0.022,0.128,0.038,0.191c0.007,0.029,0.01,0.06,0.018,0.089C11.348,14.852,10.436,15,9.5,15
			c-0.322,0-0.666-0.024-1.081-0.078l-0.86-0.109l-0.667,0.552l-2.729,2.254l0.13-3.514l0.031-0.848l-0.586-0.611
			C2.602,11.461,2,10.027,2,8.5C2,4.916,5.364,2,9.5,2c3.381,0,6.25,1.938,7.175,4.632c-0.391,0.155-0.759,0.342-1.111,0.546
			c-0.045,0.027-0.085,0.058-0.13,0.085c-0.354,0.215-0.681,0.454-0.988,0.714c-0.062,0.053-0.121,0.104-0.181,0.157
			C13.94,8.426,13.641,8.735,13.38,9.071z M24.184,16.576c-0.027,0.021-0.056,0.041-0.084,0.061l-0.107,0.079l-0.778,0.576
			l-0.031,0.968l-0.04,1.233l-1.033-0.978l-0.647-0.612l-0.887,0.072C20.386,17.99,20.194,18,20,18c-2.424,0-4.505-1.21-5.45-2.938
			c-0.046-0.082-0.087-0.165-0.126-0.249c-0.104-0.219-0.188-0.445-0.254-0.679c-0.023-0.082-0.044-0.166-0.062-0.25
			C14.045,13.597,14,13.303,14,13c0-0.328,0.044-0.646,0.116-0.957c0.024-0.105,0.069-0.205,0.103-0.309
			c0.062-0.198,0.128-0.396,0.218-0.584c0.058-0.119,0.131-0.23,0.199-0.346c0.094-0.158,0.19-0.315,0.304-0.465
			c0.089-0.117,0.189-0.229,0.29-0.339c0.117-0.129,0.239-0.255,0.37-0.374c0.12-0.108,0.246-0.211,0.378-0.311
			c0.134-0.102,0.274-0.197,0.419-0.289c0.149-0.094,0.301-0.185,0.46-0.267c0.146-0.076,0.301-0.142,0.456-0.207
			c0.174-0.073,0.348-0.146,0.53-0.206c0.158-0.051,0.325-0.087,0.489-0.127c0.193-0.047,0.384-0.099,0.585-0.129
			C19.27,8.037,19.629,8,20,8c3.309,0,6,2.243,6,5C26,14.353,25.355,15.622,24.184,16.576z"/>
	</g>
</g>
<g>
</g>
<g>
</g>
<g>
</g>
<g>
</g>
<g>
</g>
<g>
</g>
<g>
</g>
<g>
</g>
<g>
</g>
<g>
</g>
<g>
</g>
<g>
</g>
<g>
</g>
<g>
</g>
<g>
</g>
</svg>
