<?xml version="1.0" encoding="iso-8859-1"?>
<!-- Generator: Adobe Illustrator 16.0.4, SVG Export Plug-In . SVG Version: 6.00 Build 0)  -->
<!DOCTYPE svg PUBLIC "-//W3C//DTD SVG 1.1//EN" "http://www.w3.org/Graphics/SVG/1.1/DTD/svg11.dtd">
<svg version="1.1" id="Layer_1" xmlns="http://www.w3.org/2000/svg" xmlns:xlink="http://www.w3.org/1999/xlink" x="0px" y="0px"
	 width="28px" height="24px" viewBox="0 0 28 24" style="enable-background:new 0 0 28 24;" xml:space="preserve">
<g id="_x36_46-browser.png">
	<g>
		<path d="M23,9h-7v10h7V9z M26,0H2C0.896,0,0,0.896,0,2v20c0,1.104,0.896,2,2,2h24c1.104,0,2-0.896,2-2V2C28,0.896,27.104,0,26,0z
			 M11,2c0.553,0,1,0.447,1,1s-0.447,1-1,1s-1-0.447-1-1S10.447,2,11,2z M7,2c0.553,0,1,0.447,1,1S7.553,4,7,4S6,3.553,6,3
			S6.447,2,7,2z M3,2c0.553,0,1,0.447,1,1S3.553,4,3,4S2,3.553,2,3S2.447,2,3,2z M26,22H2V6h24V22z M13,9H5v2h8V9z M13,17H5v2h8V17z
			 M13,13H5v2h8V13z"/>
	</g>
</g>
<g>
</g>
<g>
</g>
<g>
</g>
<g>
</g>
<g>
</g>
<g>
</g>
<g>
</g>
<g>
</g>
<g>
</g>
<g>
</g>
<g>
</g>
<g>
</g>
<g>
</g>
<g>
</g>
<g>
</g>
</svg>
