<?xml version="1.0" encoding="iso-8859-1"?>
<!-- Generator: Adobe Illustrator 16.0.4, SVG Export Plug-In . SVG Version: 6.00 Build 0)  -->
<!DOCTYPE svg PUBLIC "-//W3C//DTD SVG 1.1//EN" "http://www.w3.org/Graphics/SVG/1.1/DTD/svg11.dtd">
<svg version="1.1" id="Layer_1" xmlns="http://www.w3.org/2000/svg" xmlns:xlink="http://www.w3.org/1999/xlink" x="0px" y="0px"
	 width="28px" height="28px" viewBox="0 0 28 28" style="enable-background:new 0 0 28 28;" xml:space="preserve">
<g id="_x36_50-target.png">
	<g>
		<path d="M14,11c-1.657,0-3,1.344-3,3c0,1.657,1.343,3,3,3s3-1.343,3-3C17,12.344,15.657,11,14,11z M25.963,13
			C25.478,7.172,20.831,2.532,15,2.056V0h-2v2.057C7.179,2.543,2.543,7.179,2.059,13H0v2h2.059C2.538,20.826,7.176,25.468,13,25.954
			V28h2v-2.042C20.834,25.48,25.48,20.834,25.961,15H28v-2H25.963z M15,23.955V22h-2v1.954C8.278,23.48,4.526,19.724,4.06,15H6v-2
			H4.061C4.532,8.281,8.281,4.528,13,4.056V6h2V4.055C19.727,4.52,23.485,8.275,23.957,13H22v2h1.959
			C23.491,19.729,19.729,23.489,15,23.955z"/>
	</g>
</g>
<g>
</g>
<g>
</g>
<g>
</g>
<g>
</g>
<g>
</g>
<g>
</g>
<g>
</g>
<g>
</g>
<g>
</g>
<g>
</g>
<g>
</g>
<g>
</g>
<g>
</g>
<g>
</g>
<g>
</g>
</svg>
