<?xml version="1.0" encoding="iso-8859-1"?>
<!-- Generator: Adobe Illustrator 16.0.4, SVG Export Plug-In . SVG Version: 6.00 Build 0)  -->
<!DOCTYPE svg PUBLIC "-//W3C//DTD SVG 1.1//EN" "http://www.w3.org/Graphics/SVG/1.1/DTD/svg11.dtd">
<svg version="1.1" id="Layer_1" xmlns="http://www.w3.org/2000/svg" xmlns:xlink="http://www.w3.org/1999/xlink" x="0px" y="0px"
	 width="27.841px" height="27.999px" viewBox="0 0 27.841 27.999" style="enable-background:new 0 0 27.841 27.999;"
	 xml:space="preserve">
<g id="_x36_67-gear3.png">
	<g>
		<path d="M27.147,15.176l-0.695-0.227c-0.413-0.134-0.693-0.518-0.693-0.95s0.28-0.815,0.694-0.95l0.694-0.226
			c0.478-0.155,0.767-0.636,0.678-1.126l-0.046-0.26c-0.088-0.489-0.524-0.841-1.024-0.824l-0.731,0.023
			c-0.436,0.014-0.83-0.252-0.979-0.658c-0.149-0.406-0.019-0.861,0.324-1.128l0.576-0.449c0.394-0.308,0.501-0.856,0.249-1.288
			l-0.134-0.229c-0.25-0.43-0.781-0.611-1.246-0.427l-0.679,0.271c-0.404,0.161-0.867,0.046-1.146-0.285
			c-0.28-0.331-0.313-0.803-0.084-1.17l0.387-0.619c0.265-0.423,0.175-0.975-0.21-1.295L22.878,3.19
			c-0.384-0.319-0.945-0.31-1.317,0.022l-0.545,0.484c-0.325,0.289-0.799,0.338-1.176,0.121c-0.377-0.216-0.571-0.648-0.482-1.071
			l0.15-0.711c0.104-0.488-0.171-0.977-0.643-1.146l-0.25-0.09c-0.471-0.169-0.994,0.031-1.23,0.469L17.04,1.909
			c-0.206,0.381-0.635,0.588-1.063,0.513s-0.76-0.415-0.821-0.844l-0.104-0.72C14.98,0.366,14.556,0,14.055,0h-0.268
			c-0.501,0-0.926,0.366-0.997,0.858l-0.103,0.718c-0.062,0.428-0.394,0.769-0.822,0.844c-0.429,0.074-0.857-0.133-1.063-0.514
			l-0.344-0.64c-0.236-0.438-0.762-0.638-1.232-0.468L8.974,0.89C8.503,1.061,8.229,1.548,8.333,2.035l0.149,0.709
			C8.572,3.167,8.378,3.6,8.001,3.815C7.623,4.031,7.149,3.982,6.825,3.694L6.282,3.211C5.909,2.879,5.347,2.869,4.963,3.189
			L4.758,3.36C4.374,3.681,4.285,4.231,4.55,4.654l0.385,0.617c0.229,0.367,0.196,0.839-0.084,1.17
			C4.571,6.773,4.108,6.888,3.704,6.727l-0.677-0.27C2.562,6.271,2.029,6.453,1.779,6.885l-0.134,0.23
			C1.395,7.546,1.502,8.095,1.896,8.401L2.471,8.85c0.343,0.268,0.474,0.723,0.324,1.129c-0.148,0.406-0.544,0.672-0.979,0.657
			l-0.73-0.023c-0.501-0.017-0.938,0.336-1.024,0.826L0.016,11.7c-0.088,0.489,0.202,0.969,0.678,1.123l0.693,0.226
			C1.801,13.184,2.08,13.567,2.08,14c0,0.432-0.279,0.815-0.693,0.95l-0.693,0.226C0.217,15.33-0.072,15.81,0.016,16.3l0.046,0.262
			c0.088,0.49,0.524,0.842,1.024,0.825l0.73-0.023c0.436-0.015,0.83,0.251,0.979,0.657c0.149,0.406,0.019,0.861-0.324,1.129
			l-0.574,0.447c-0.395,0.308-0.501,0.857-0.25,1.288l0.134,0.23c0.251,0.431,0.782,0.612,1.247,0.427l0.679-0.271
			c0.403-0.16,0.866-0.046,1.146,0.285c0.28,0.332,0.314,0.804,0.084,1.171L4.55,23.345c-0.265,0.423-0.176,0.975,0.209,1.295
			l0.204,0.17c0.384,0.319,0.945,0.311,1.318-0.021l0.545-0.485c0.324-0.288,0.799-0.337,1.176-0.121s0.571,0.648,0.482,1.071
			l-0.15,0.711c-0.104,0.487,0.17,0.976,0.642,1.146l0.25,0.091c0.471,0.17,0.996-0.029,1.232-0.469l0.345-0.64
			c0.205-0.382,0.634-0.589,1.062-0.514s0.761,0.415,0.822,0.844l0.104,0.719c0.071,0.493,0.496,0.859,0.998,0.858h0.267
			c0.501-0.001,0.925-0.366,0.996-0.858l0.104-0.72c0.062-0.429,0.394-0.769,0.822-0.844s0.857,0.132,1.062,0.514l0.346,0.641
			c0.236,0.439,0.762,0.639,1.233,0.468l0.249-0.091c0.471-0.17,0.743-0.658,0.641-1.145l-0.151-0.712
			c-0.089-0.424,0.105-0.855,0.482-1.072c0.377-0.216,0.852-0.167,1.176,0.122l0.546,0.485c0.373,0.332,0.936,0.341,1.32,0.021
			l0.203-0.17c0.383-0.32,0.471-0.871,0.207-1.293l-0.387-0.617c-0.229-0.367-0.196-0.84,0.084-1.171s0.742-0.446,1.146-0.285
			l0.68,0.271c0.465,0.186,0.997,0.002,1.247-0.43l0.133-0.229c0.25-0.433,0.144-0.979-0.25-1.287l-0.575-0.447
			c-0.343-0.268-0.474-0.723-0.324-1.129c0.148-0.406,0.543-0.672,0.979-0.657l0.73,0.023c0.501,0.017,0.938-0.337,1.024-0.827
			l0.046-0.262C27.912,15.809,27.623,15.33,27.147,15.176z M13.921,12.001c1.112,0,2.014,0.896,2.014,2s-0.901,2-2.014,2
			s-2.014-0.896-2.014-2S12.809,12.001,13.921,12.001z M9.229,17.011l-1.954,2.671c-0.191,0.264-0.5,0.416-0.826,0.412
			c-0.327-0.004-0.631-0.164-0.817-0.432c-1.12-1.608-1.78-3.557-1.78-5.661c0-0.267,0.129-0.518,0.346-0.674
			c0.218-0.157,0.497-0.201,0.753-0.118l3.398,1.097c0.343,0.11,0.6,0.395,0.675,0.744c0.072,0.337,0.177,0.661,0.313,0.969
			C9.481,16.345,9.439,16.723,9.229,17.011z M9.586,10.498l-3.162-1.02C6.112,9.378,5.87,9.134,5.773,8.823
			c-0.098-0.31-0.036-0.647,0.162-0.905c1.175-1.519,2.775-2.695,4.628-3.346c0.309-0.109,0.65-0.062,0.917,0.125
			c0.268,0.188,0.427,0.492,0.427,0.816v3.298c0,0.354-0.189,0.684-0.497,0.863c-0.301,0.175-0.579,0.381-0.835,0.612
			C10.308,10.529,9.93,10.609,9.586,10.498z M17.45,22.946c-0.104,0.307-0.352,0.545-0.664,0.638
			c-0.908,0.271-1.868,0.418-2.865,0.418s-1.957-0.147-2.864-0.418c-0.313-0.093-0.561-0.331-0.666-0.638
			c-0.104-0.308-0.052-0.646,0.14-0.908l1.946-2.659c0.212-0.291,0.566-0.446,0.926-0.406c0.171,0.019,0.343,0.028,0.519,0.028
			s0.349-0.01,0.519-0.028c0.36-0.04,0.714,0.115,0.926,0.406l1.946,2.659C17.503,22.301,17.556,22.639,17.45,22.946z
			 M18.257,10.498c-0.344,0.111-0.723,0.03-0.99-0.211c-0.256-0.231-0.534-0.438-0.835-0.612c-0.308-0.18-0.497-0.508-0.497-0.863
			V5.514c0-0.324,0.159-0.629,0.427-0.816c0.267-0.188,0.608-0.235,0.917-0.127c1.853,0.651,3.454,1.829,4.628,3.349
			c0.199,0.258,0.26,0.596,0.163,0.905c-0.097,0.311-0.34,0.555-0.65,0.655L18.257,10.498z M22.21,19.664
			c-0.186,0.266-0.49,0.428-0.817,0.432c-0.326,0.002-0.634-0.15-0.826-0.414l-1.954-2.671c-0.21-0.288-0.251-0.667-0.106-0.992
			c0.137-0.308,0.242-0.632,0.313-0.969c0.075-0.351,0.332-0.634,0.675-0.744l3.398-1.097c0.256-0.083,0.536-0.039,0.753,0.118
			c0.217,0.156,0.346,0.407,0.346,0.674C23.991,16.106,23.331,18.054,22.21,19.664z"/>
	</g>
</g>
<g>
</g>
<g>
</g>
<g>
</g>
<g>
</g>
<g>
</g>
<g>
</g>
<g>
</g>
<g>
</g>
<g>
</g>
<g>
</g>
<g>
</g>
<g>
</g>
<g>
</g>
<g>
</g>
<g>
</g>
</svg>
