<?xml version="1.0" encoding="iso-8859-1"?>
<!-- Generator: Adobe Illustrator 16.0.4, SVG Export Plug-In . SVG Version: 6.00 Build 0)  -->
<!DOCTYPE svg PUBLIC "-//W3C//DTD SVG 1.1//EN" "http://www.w3.org/Graphics/SVG/1.1/DTD/svg11.dtd">
<svg version="1.1" id="Layer_1" xmlns="http://www.w3.org/2000/svg" xmlns:xlink="http://www.w3.org/1999/xlink" x="0px" y="0px"
	 width="28px" height="28px" viewBox="0 0 28 28" style="enable-background:new 0 0 28 28;" xml:space="preserve">
<g id="_x36_70-radar2.png">
	<g>
		<path d="M26.962,14c-0.524,0-0.957,0.402-0.997,0.924C25.492,21.111,20.307,26,14,26C7.383,26,2,20.617,2,14S7.383,2,14,2
			c2.389,0,4.609,0.71,6.481,1.918L18.313,7.29C17.066,6.486,15.595,6,14,6c-4.418,0-8,3.582-8,8s3.582,8,8,8
			c4.031,0,7.365-2.981,7.919-6.858c0.041-0.287-0.044-0.578-0.234-0.797C21.494,14.125,21.219,14,20.928,14
			c-0.498,0-0.918,0.365-0.988,0.857C19.521,17.762,17.018,20,14,20c-3.309,0-6-2.691-6-6s2.691-6,6-6
			c1.194,0,2.298,0.366,3.233,0.97L15.08,12.32C14.768,12.12,14.398,12,14,12c-1.104,0-2,0.896-2,2s0.896,2,2,2s2-0.896,2-2
			c0-0.398-0.12-0.768-0.32-1.079L28,5l-5-5l-1.436,2.233C19.382,0.826,16.79,0,14,0C6.268,0,0,6.268,0,14s6.268,14,14,14
			c7.37,0,13.409-5.694,13.959-12.923c0.021-0.277-0.074-0.552-0.264-0.756S27.24,14,26.962,14z"/>
	</g>
</g>
<g>
</g>
<g>
</g>
<g>
</g>
<g>
</g>
<g>
</g>
<g>
</g>
<g>
</g>
<g>
</g>
<g>
</g>
<g>
</g>
<g>
</g>
<g>
</g>
<g>
</g>
<g>
</g>
<g>
</g>
</svg>
