<?xml version="1.0" encoding="iso-8859-1"?>
<!-- Generator: Adobe Illustrator 16.0.4, SVG Export Plug-In . SVG Version: 6.00 Build 0)  -->
<!DOCTYPE svg PUBLIC "-//W3C//DTD SVG 1.1//EN" "http://www.w3.org/Graphics/SVG/1.1/DTD/svg11.dtd">
<svg version="1.1" id="Layer_1" xmlns="http://www.w3.org/2000/svg" xmlns:xlink="http://www.w3.org/1999/xlink" x="0px" y="0px"
	 width="28px" height="18px" viewBox="0 0 28 18" style="enable-background:new 0 0 28 18;" xml:space="preserve">
<g id="_x36_88-weather-windy.png">
	<g>
		<path d="M27,14c-6,0-6-2-13-2s-7,4-13,4c-0.553,0-1,0.448-1,1c0,0.553,0.447,1,1,1c7,0,7-4,13-4s6,2,13,2c0.553,0,1-0.447,1-1
			S27.553,14,27,14z M1,6c7,0,7-4,13-4s6,2,13,2c0.553,0,1-0.447,1-1c0-0.552-0.447-1-1-1c-6,0-6-2-13-2S7,4,1,4
			C0.447,4,0,4.447,0,5S0.447,6,1,6z M27,8c-6,0-6-2-13-2s-7,4-13,4c-0.553,0-1,0.447-1,1s0.447,1,1,1c7,0,7-4,13-4s6,2,13,2
			c0.553,0,1-0.447,1-1S27.553,8,27,8z"/>
	</g>
</g>
<g>
</g>
<g>
</g>
<g>
</g>
<g>
</g>
<g>
</g>
<g>
</g>
<g>
</g>
<g>
</g>
<g>
</g>
<g>
</g>
<g>
</g>
<g>
</g>
<g>
</g>
<g>
</g>
<g>
</g>
</svg>
