<?xml version="1.0" encoding="iso-8859-1"?>
<!-- Generator: Adobe Illustrator 16.0.4, SVG Export Plug-In . SVG Version: 6.00 Build 0)  -->
<!DOCTYPE svg PUBLIC "-//W3C//DTD SVG 1.1//EN" "http://www.w3.org/Graphics/SVG/1.1/DTD/svg11.dtd">
<svg version="1.1" id="Layer_1" xmlns="http://www.w3.org/2000/svg" xmlns:xlink="http://www.w3.org/1999/xlink" x="0px" y="0px"
	 width="26px" height="26px" viewBox="0 0 26 26" style="enable-background:new 0 0 26 26;" xml:space="preserve">
<g id="_x36_90-weather-raindrops.png">
	<g>
		<path d="M22.625,10.77c0,0-3.375,5.076-3.375,8.461c0,0,0,3.385,3.375,3.385S26,19.23,26,19.23
			C26,15.846,22.625,10.77,22.625,10.77z M0,22.615C0,22.615,0,26,3.375,26s3.375-3.385,3.375-3.385
			c0-3.385-3.375-8.461-3.375-8.461S0,19.23,0,22.615z M10.125,8.462c0,0,0,3.384,3.375,3.384s3.375-3.384,3.375-3.384
			C16.875,5.077,13.5,0,13.5,0S10.125,5.077,10.125,8.462z"/>
	</g>
</g>
<g>
</g>
<g>
</g>
<g>
</g>
<g>
</g>
<g>
</g>
<g>
</g>
<g>
</g>
<g>
</g>
<g>
</g>
<g>
</g>
<g>
</g>
<g>
</g>
<g>
</g>
<g>
</g>
<g>
</g>
</svg>
