<?xml version="1.0" encoding="iso-8859-1"?>
<!-- Generator: Adobe Illustrator 16.0.4, SVG Export Plug-In . SVG Version: 6.00 Build 0)  -->
<!DOCTYPE svg PUBLIC "-//W3C//DTD SVG 1.1//EN" "http://www.w3.org/Graphics/SVG/1.1/DTD/svg11.dtd">
<svg version="1.1" id="Layer_1" xmlns="http://www.w3.org/2000/svg" xmlns:xlink="http://www.w3.org/1999/xlink" x="0px" y="0px"
	 width="26.027px" height="28px" viewBox="0 0 26.027 28" style="enable-background:new 0 0 26.027 28;" xml:space="preserve">
<g id="_x33_07-atom.png">
	<g>
		<path d="M23.039,13.991c2.52-2.746,3.621-5.455,2.595-7.218C24.938,5.577,23.371,5,21.292,5c-1.06,0-2.258,0.16-3.536,0.454
			C16.66,2.14,14.945,0,13.013,0S9.365,2.142,8.268,5.454C6.99,5.16,5.792,5,4.733,5C2.654,5,1.088,5.577,0.392,6.773
			c-1.027,1.765,0.068,4.477,2.595,7.225c-2.526,2.749-3.633,5.464-2.604,7.229C1.078,22.423,2.645,23,4.724,23
			c1.062,0,2.264-0.16,3.546-0.456C9.364,25.859,11.079,28,13.013,28s3.648-2.143,4.746-5.456C19.039,22.84,20.24,23,21.302,23
			c2.079,0,3.646-0.577,4.342-1.773C26.673,19.46,25.572,16.743,23.039,13.991z M17.462,9.433c-0.429-0.272-0.868-0.538-1.32-0.797
			c-0.541-0.31-1.083-0.597-1.622-0.867c0.819-0.323,1.623-0.595,2.408-0.819C17.135,7.725,17.322,8.541,17.462,9.433z M13.013,1.2
			c1.272,0,2.621,1.748,3.565,4.562c-1.151,0.33-2.351,0.755-3.58,1.297c-1.221-0.534-2.421-0.974-3.567-1.302
			C10.377,2.935,11.737,1.2,13.013,1.2z M9.08,6.944c0.782,0.224,1.591,0.512,2.405,0.831c-0.533,0.269-1.067,0.555-1.602,0.86
			C9.436,8.892,8.999,9.156,8.575,9.425C8.713,8.549,8.876,7.709,9.08,6.944z M1.323,9.09c-0.18-0.693-0.147-1.258,0.098-1.678
			c0.435-0.746,1.642-1.174,3.312-1.174c0.96,0,2.04,0.149,3.181,0.407c-0.3,1.13-0.529,2.369-0.684,3.681
			c-1.275,0.898-2.409,1.841-3.388,2.792C2.454,11.599,1.606,10.185,1.323,9.09z M7.083,16.037c-0.898-0.681-1.688-1.365-2.382-2.04
			c0.693-0.675,1.478-1.356,2.378-2.038C7.036,12.625,7.013,13.306,7.013,14S7.042,15.371,7.083,16.037z M4.724,21.762
			c-1.671,0-2.879-0.428-3.312-1.174c-0.245-0.42-0.278-0.984-0.099-1.678c0.285-1.096,1.142-2.517,2.53-4.038
			c0.977,0.95,2.111,1.894,3.385,2.792c0.153,1.318,0.391,2.554,0.69,3.688C6.772,21.611,5.688,21.762,4.724,21.762z M8.562,18.561
			c0.432,0.273,0.875,0.543,1.331,0.804c0.539,0.309,1.077,0.593,1.613,0.862c-0.819,0.324-1.624,0.596-2.41,0.821
			C8.89,20.271,8.702,19.453,8.562,18.561z M13.013,26.8c-1.273,0-2.622-1.749-3.565-4.564c1.151-0.331,2.351-0.757,3.58-1.3
			c1.222,0.535,2.422,0.976,3.568,1.304C15.649,25.064,14.289,26.8,13.013,26.8z M16.946,21.053
			c-0.783-0.224-1.592-0.513-2.407-0.833c0.529-0.267,1.062-0.551,1.593-0.855c0.452-0.259,0.892-0.525,1.32-0.797
			C17.313,19.445,17.15,20.287,16.946,21.053z M17.655,16.962c-0.659,0.447-1.355,0.89-2.106,1.319
			c-0.835,0.478-1.682,0.905-2.525,1.294c-0.852-0.389-1.704-0.812-2.547-1.294c-0.756-0.433-1.455-0.878-2.118-1.327
			C8.267,16.011,8.212,15.026,8.212,14c0-1.036,0.064-2.02,0.158-2.97c0.657-0.444,1.35-0.884,2.096-1.312
			c0.839-0.479,1.688-0.908,2.536-1.299c0.854,0.391,1.711,0.814,2.558,1.299c0.751,0.431,1.446,0.872,2.106,1.319
			c0.093,0.945,0.147,1.933,0.147,2.962C17.813,15.033,17.749,16.015,17.655,16.962z M21.292,6.238c1.671,0,2.878,0.428,3.312,1.174
			c0.245,0.42,0.278,0.984,0.098,1.678c-0.283,1.093-1.138,2.51-2.52,4.027c-0.978-0.949-2.112-1.893-3.386-2.789
			c-0.153-1.316-0.39-2.55-0.69-3.682C19.249,6.389,20.331,6.238,21.292,6.238z M18.941,11.955c0.899,0.68,1.688,1.364,2.383,2.038
			c-0.693,0.675-1.477,1.358-2.377,2.04c0.042-0.663,0.065-1.342,0.065-2.033C19.013,13.304,18.983,12.624,18.941,11.955z
			 M24.614,20.588c-0.434,0.746-1.642,1.174-3.312,1.174c-0.963,0-2.046-0.15-3.19-0.409c0.301-1.132,0.53-2.373,0.685-3.687
			c1.275-0.899,2.409-1.843,3.387-2.794c1.396,1.522,2.245,2.941,2.53,4.038C24.893,19.604,24.859,20.168,24.614,20.588z M13.013,12
			c-1.104,0-2,0.896-2,2s0.896,2,2,2s2-0.896,2-2S14.117,12,13.013,12z"/>
	</g>
</g>
<g>
</g>
<g>
</g>
<g>
</g>
<g>
</g>
<g>
</g>
<g>
</g>
<g>
</g>
<g>
</g>
<g>
</g>
<g>
</g>
<g>
</g>
<g>
</g>
<g>
</g>
<g>
</g>
<g>
</g>
</svg>
