<?xml version="1.0" encoding="iso-8859-1"?>
<!-- Generator: Adobe Illustrator 16.0.4, SVG Export Plug-In . SVG Version: 6.00 Build 0)  -->
<!DOCTYPE svg PUBLIC "-//W3C//DTD SVG 1.1//EN" "http://www.w3.org/Graphics/SVG/1.1/DTD/svg11.dtd">
<svg version="1.1" id="Layer_1" xmlns="http://www.w3.org/2000/svg" xmlns:xlink="http://www.w3.org/1999/xlink" x="0px" y="0px"
	 width="28px" height="27px" viewBox="0 0 28 27" style="enable-background:new 0 0 28 27;" xml:space="preserve">
<g id="_x33_19-shipping-crate.png">
	<g>
		<path d="M16,0L0,4.25V18l11,9l17-5V8L16,0z M15.642,2.165l9.46,6.307l-5.278,1.352l-9.05-6.365L15.642,2.165z M11,24.416l-9-7.363
			V6.639l9,6.856V24.416z M3.62,5.357l5.35-1.421l9.052,6.367l-5.805,1.604L3.62,5.357z M26,20.504l-13,3.823v-10.56l13-3.467
			V20.504z"/>
	</g>
</g>
<g>
</g>
<g>
</g>
<g>
</g>
<g>
</g>
<g>
</g>
<g>
</g>
<g>
</g>
<g>
</g>
<g>
</g>
<g>
</g>
<g>
</g>
<g>
</g>
<g>
</g>
<g>
</g>
<g>
</g>
</svg>
