<?xml version="1.0" encoding="iso-8859-1"?>
<!-- Generator: Adobe Illustrator 16.0.4, SVG Export Plug-In . SVG Version: 6.00 Build 0)  -->
<!DOCTYPE svg PUBLIC "-//W3C//DTD SVG 1.1//EN" "http://www.w3.org/Graphics/SVG/1.1/DTD/svg11.dtd">
<svg version="1.1" id="Layer_1" xmlns="http://www.w3.org/2000/svg" xmlns:xlink="http://www.w3.org/1999/xlink" x="0px" y="0px"
	 width="26.008px" height="26px" viewBox="0 0 26.008 26" style="enable-background:new 0 0 26.008 26;" xml:space="preserve">
<g id="_x33_22-dislike.png">
	<g>
		<path d="M25.007,0h-6.001c-0.553,0-1.001,0.447-1.001,1v2c0-1.104-0.896-2-2-2H5.002C4.1,1,3.309,1.604,3.071,2.474L0.07,13.475
			c-0.164,0.602-0.038,1.244,0.341,1.74c0.379,0.495,0.966,0.786,1.59,0.786h5.604c-0.285,1.672-0.603,3.791-0.603,4.938
			C7.002,23.493,9.175,26,11.39,26c1.425,0,2.532-1.048,2.69-2.548c0.047-0.445,0.063-0.9,0.081-1.383
			c0.081-2.214,0.173-4.725,3.222-7.619c0.397-0.377,0.622-0.902,0.622-1.45v1c0,0.553,0.448,1,1.001,1h6.001
			c0.553,0,1.001-0.447,1.001-1V1C26.008,0.447,25.56,0,25.007,0z M16.005,13c-4.35,4.131-3.67,7.929-3.914,10.243
			C12.034,23.772,11.757,24,11.39,24c-0.915,0-2.387-1.407-2.387-3.062c0-1.826,1-6.938,1-6.938H2.001L2.547,12h1.955
			c0.276,0,0.5-0.224,0.5-0.5S4.778,11,4.502,11H2.819l0.546-2h2.137c0.276,0,0.5-0.224,0.5-0.5S5.778,8,5.502,8H3.638l0.546-2
			h1.318c0.276,0,0.5-0.224,0.5-0.5S5.778,5,5.502,5H4.456l0.546-2h11.003C16.005,3,16.005,11,16.005,13z M22.006,5
			c-0.553,0-1-0.447-1-1s0.447-1,1-1c0.554,0,1.001,0.447,1.001,1S22.56,5,22.006,5z"/>
	</g>
</g>
<g>
</g>
<g>
</g>
<g>
</g>
<g>
</g>
<g>
</g>
<g>
</g>
<g>
</g>
<g>
</g>
<g>
</g>
<g>
</g>
<g>
</g>
<g>
</g>
<g>
</g>
<g>
</g>
<g>
</g>
</svg>
