<?xml version="1.0" encoding="iso-8859-1"?>
<!-- Generator: Adobe Illustrator 16.0.4, SVG Export Plug-In . SVG Version: 6.00 Build 0)  -->
<!DOCTYPE svg PUBLIC "-//W3C//DTD SVG 1.1//EN" "http://www.w3.org/Graphics/SVG/1.1/DTD/svg11.dtd">
<svg version="1.1" id="Layer_1" xmlns="http://www.w3.org/2000/svg" xmlns:xlink="http://www.w3.org/1999/xlink" x="0px" y="0px"
	 width="26px" height="24.988px" viewBox="0 0 26 24.988" style="enable-background:new 0 0 26 24.988;" xml:space="preserve">
<g id="_x33_30-layers4.png">
	<g>
		<path d="M13,13.074L22,8.2l4-2.166L13,0L0,6.034L4,8.2L13,13.074z M13,1.108l10.763,4.995l-2.236,1.212L13,11.933L4.474,7.315
			L2.237,6.104L13,1.108z M13,14.932l-9-4.874l-4,1.856l13,7.04l13-7.04l-4-1.856L13,14.932z M13,20.966l-9-4.874l-4,1.856l13,7.04
			l13-7.04l-4-1.856L13,20.966z"/>
	</g>
</g>
<g>
</g>
<g>
</g>
<g>
</g>
<g>
</g>
<g>
</g>
<g>
</g>
<g>
</g>
<g>
</g>
<g>
</g>
<g>
</g>
<g>
</g>
<g>
</g>
<g>
</g>
<g>
</g>
<g>
</g>
</svg>
