<?xml version="1.0" encoding="iso-8859-1"?>
<!-- Generator: Adobe Illustrator 16.0.4, SVG Export Plug-In . SVG Version: 6.00 Build 0)  -->
<!DOCTYPE svg PUBLIC "-//W3C//DTD SVG 1.1//EN" "http://www.w3.org/Graphics/SVG/1.1/DTD/svg11.dtd">
<svg version="1.1" id="Layer_1" xmlns="http://www.w3.org/2000/svg" xmlns:xlink="http://www.w3.org/1999/xlink" x="0px" y="0px"
	 width="23.979px" height="21.964px" viewBox="0 0 23.979 21.964" style="enable-background:new 0 0 23.979 21.964;"
	 xml:space="preserve">
<g id="_x33_31-download.png">
	<g>
		<path d="M15.992,17.966L15.992,17.966L15.992,17.966L15.992,17.966z M10.101,2.513c0.639,0.27,1.202,0.668,1.701,1.091
			c0.503,0.427,0.881,0.954,1.207,1.456c0.301,0.523,0.548,1.034,0.706,1.533c0.177,0.489,0.258,0.965,0.301,1.382
			c0.055,0.433,0.046,0.761,0.041,1.018c0.006,0.112-0.005,0.277-0.016,0.424c-0.009,0.143-0.018,0.263-0.024,0.36
			c-0.006,0.092-0.01,0.16-0.014,0.21h-4.001l5.989,7.979l5.989-7.979h-3.985c0-0.006,0-0.013,0-0.019l-0.008-0.071
			c0,0-0.013-0.104-0.036-0.297c-0.012-0.097-0.026-0.216-0.043-0.356c-0.016-0.136-0.033-0.294-0.082-0.543
			c-0.078-0.468-0.192-1.019-0.375-1.575c-0.18-0.571-0.426-1.205-0.771-1.854c-0.333-0.654-0.784-1.316-1.314-1.964
			c-0.555-0.631-1.192-1.249-1.95-1.762c-0.76-0.503-1.602-0.943-2.521-1.205C9.979,0.082,9.017-0.04,8.069,0.012
			C7.768,0.03,7.667,0.042,7.375,0.086C7.116,0.12,6.886,0.175,6.658,0.229C6.201,0.35,5.762,0.508,5.346,0.698
			C4.517,1.087,3.792,1.6,3.177,2.169C1.949,3.315,1.162,4.653,0.689,5.847c-0.473,1.199-0.631,2.259-0.673,2.99
			c-0.04,0.734,0.006,1.148,0.006,1.148l0.01,0.093c0.029,0.264,0.263,0.459,0.53,0.439c0.273-0.021,0.479-0.259,0.458-0.532
			c0,0-0.027-0.363,0.03-1.009C1.118,8.339,1.259,7.39,1.758,6.361c0.494-1.015,1.25-2.162,2.37-3.012
			c0.556-0.423,1.182-0.776,1.85-1.015c0.335-0.116,0.679-0.203,1.026-0.262C7.179,2.05,7.355,2.025,7.508,2.02
			c0.117-0.015,0.435-0.015,0.546-0.006C8.771,2.065,9.462,2.247,10.101,2.513z M7.979,18.964v3h16v-3H7.979z"/>
	</g>
</g>
<g>
</g>
<g>
</g>
<g>
</g>
<g>
</g>
<g>
</g>
<g>
</g>
<g>
</g>
<g>
</g>
<g>
</g>
<g>
</g>
<g>
</g>
<g>
</g>
<g>
</g>
<g>
</g>
<g>
</g>
</svg>
