<?xml version="1.0" encoding="iso-8859-1"?>
<!-- Generator: Adobe Illustrator 16.0.4, SVG Export Plug-In . SVG Version: 6.00 Build 0)  -->
<!DOCTYPE svg PUBLIC "-//W3C//DTD SVG 1.1//EN" "http://www.w3.org/Graphics/SVG/1.1/DTD/svg11.dtd">
<svg version="1.1" id="Layer_1" xmlns="http://www.w3.org/2000/svg" xmlns:xlink="http://www.w3.org/1999/xlink" x="0px" y="0px"
	 width="28.892px" height="25.748px" viewBox="0 0 28.892 25.748" style="enable-background:new 0 0 28.892 25.748;"
	 xml:space="preserve">
<g id="_x33_34-backintime2.png">
	<g>
		<path d="M15.001,6.885v8h6v-2h-4v-6H15.001z M28.828,11.601c-0.174-1.781-0.727-3.589-1.663-5.217
			c-0.932-1.63-2.238-3.076-3.791-4.181c-1.564-1.087-3.363-1.826-5.207-2.146c-1.844-0.108-3.66-0.074-5.448,0.215
			C10.99,0.713,9.42,1.506,8.122,2.5C6.819,3.494,5.789,4.682,5.025,5.889c-0.76,1.21-1.289,2.43-1.569,3.56
			c-0.187,0.554-0.23,1.102-0.338,1.593c-0.061,0.5-0.086,0.963-0.124,1.379c0.005,0.573,0.014,1.055,0.043,1.448H0l4.669,5.663
			l4.301-5.663H6.033c-0.053-0.336-0.07-0.777-0.095-1.35c0.022-0.321,0.047-0.678,0.074-1.066c0.082-0.379,0.095-0.807,0.236-1.237
			c0.193-0.883,0.592-1.839,1.164-2.799C7.992,6.461,8.758,5.49,9.764,4.672c1.001-0.826,2.234-1.49,3.524-1.878l0.65-0.167
			l0.284-0.073l0.055-0.008l0.136-0.02c0.361-0.041,0.723-0.146,1.093-0.143c0.738-0.054,1.495-0.05,2.244,0.072
			c1.504,0.209,2.999,0.762,4.323,1.616c1.311,0.87,2.436,2.035,3.258,3.371c0.426,0.652,0.753,1.409,0.986,2.037l0.1,0.245
			l0.087,0.328l0.172,0.663c0.093,0.266,0.138,0.725,0.214,1.075c0.479,3.032-0.438,6.004-1.889,8.062
			c-0.72,1.036-1.532,1.9-2.363,2.522c-0.394,0.346-0.818,0.589-1.185,0.859c-0.389,0.233-0.762,0.426-1.093,0.614
			c-0.332,0.146-0.629,0.306-0.889,0.419c-0.254,0.119-0.558,0.276-0.759,0.348c-0.427,0.131-0.655,0.2-0.655,0.2l-0.03,0.01
			c-0.263,0.081-0.41,0.36-0.33,0.624c0.076,0.254,0.337,0.338,0.591,0.278c0,0,0.231,0.008,0.664-0.095
			c0.441-0.08,1.06-0.417,1.844-0.697c0.377-0.178,0.8-0.36,1.247-0.588c0.423-0.27,0.92-0.499,1.375-0.864
			c0.96-0.651,1.919-1.569,2.79-2.7c0.868-1.134,1.627-2.513,2.109-4.082C28.803,15.136,29.007,13.383,28.828,11.601z"/>
	</g>
</g>
<g>
</g>
<g>
</g>
<g>
</g>
<g>
</g>
<g>
</g>
<g>
</g>
<g>
</g>
<g>
</g>
<g>
</g>
<g>
</g>
<g>
</g>
<g>
</g>
<g>
</g>
<g>
</g>
<g>
</g>
</svg>
