<?xml version="1.0" encoding="iso-8859-1"?>
<!-- Generator: Adobe Illustrator 16.0.4, SVG Export Plug-In . SVG Version: 6.00 Build 0)  -->
<!DOCTYPE svg PUBLIC "-//W3C//DTD SVG 1.1//EN" "http://www.w3.org/Graphics/SVG/1.1/DTD/svg11.dtd">
<svg version="1.1" id="Layer_1" xmlns="http://www.w3.org/2000/svg" xmlns:xlink="http://www.w3.org/1999/xlink" x="0px" y="0px"
	 width="15px" height="27px" viewBox="0 0 15 27" style="enable-background:new 0 0 15 27;" xml:space="preserve">
<g id="_x33_46-pentool.png">
	<g>
		<path d="M15,15L8,1V0H7v1L0,15l4,6H2v2h2v4h7v-4h2v-2h-2L15,15z M9.336,19.891L9,20.395V21H6v-0.605l-0.336-0.504l-3.355-5.034
			L7,5.473V12H6v3h3v-3H8V5.473l4.692,9.384L9.336,19.891z"/>
	</g>
</g>
<g>
</g>
<g>
</g>
<g>
</g>
<g>
</g>
<g>
</g>
<g>
</g>
<g>
</g>
<g>
</g>
<g>
</g>
<g>
</g>
<g>
</g>
<g>
</g>
<g>
</g>
<g>
</g>
<g>
</g>
</svg>
