<?xml version="1.0" encoding="iso-8859-1"?>
<!-- Generator: Adobe Illustrator 16.0.4, SVG Export Plug-In . SVG Version: 6.00 Build 0)  -->
<!DOCTYPE svg PUBLIC "-//W3C//DTD SVG 1.1//EN" "http://www.w3.org/Graphics/SVG/1.1/DTD/svg11.dtd">
<svg version="1.1" id="Layer_1" xmlns="http://www.w3.org/2000/svg" xmlns:xlink="http://www.w3.org/1999/xlink" x="0px" y="0px"
	 width="35px" height="30.991px" viewBox="0 0 35 30.991" style="enable-background:new 0 0 35 30.991;" xml:space="preserve">
<g id="_x33_71-baseball-diamond.png">
	<g>
		<path d="M18,0C7,0,0,13.996,0,13.996l16.327,16.322c0.439,0.439,1.038,0.682,1.659,0.673s1.212-0.269,1.639-0.72L35,13.996
			C35,13.996,29,0,18,0z M18,5.998c1.103,0,2,0.897,2,1.999c0,1.103-0.897,2-2,2c-1.103,0-2-0.897-2-2
			C16,6.896,16.897,5.998,18,5.998z M6,16.995c0-1.103,0.897-1.999,2-1.999s2,0.896,2,1.999s-0.897,1.999-2,1.999S6,18.098,6,16.995
			z M18,28.992c-1.103,0-2-0.897-2-2c0-1.102,0.897-1.999,2-1.999c1.103,0,2,0.897,2,1.999C20,28.095,19.103,28.992,18,28.992z
			 M20.978,26.768c-0.117-1.55-1.398-2.774-2.978-2.774c-1.657,0-3,1.343-3,2.999l-7-6.998c1.657,0,3-1.343,3-2.999
			c0-1.58-1.225-2.859-2.774-2.977l6.8-6.276C15.019,7.828,15,7.91,15,7.997c0,1.657,1.344,3,3,3c1.656,0,3-1.343,3-3l6,5.999
			c-1.657,0-3,1.342-3,2.999c0,1.656,1.343,2.999,3,2.999c0.087,0,0.169-0.019,0.254-0.025L20.978,26.768z M27,18.994
			c-1.103,0-2-0.896-2-1.999s0.897-1.999,2-1.999s2,0.896,2,1.999S28.103,18.994,27,18.994z"/>
	</g>
</g>
<g>
</g>
<g>
</g>
<g>
</g>
<g>
</g>
<g>
</g>
<g>
</g>
<g>
</g>
<g>
</g>
<g>
</g>
<g>
</g>
<g>
</g>
<g>
</g>
<g>
</g>
<g>
</g>
<g>
</g>
</svg>
