<?xml version="1.0" encoding="iso-8859-1"?>
<!-- Generator: Adobe Illustrator 16.0.4, SVG Export Plug-In . SVG Version: 6.00 Build 0)  -->
<!DOCTYPE svg PUBLIC "-//W3C//DTD SVG 1.1//EN" "http://www.w3.org/Graphics/SVG/1.1/DTD/svg11.dtd">
<svg version="1.1" id="Layer_1" xmlns="http://www.w3.org/2000/svg" xmlns:xlink="http://www.w3.org/1999/xlink" x="0px" y="0px"
	 width="28px" height="28px" viewBox="0 0 28 28" style="enable-background:new 0 0 28 28;" xml:space="preserve">
<g id="_x33_72-baseball.png">
	<g>
		<path d="M1.129,12.93c0.493,0.033,0.989,0.032,1.482,0c-0.049-0.528,0.308-1.01,0.838-1.094c0.528-0.083,1.018,0.266,1.134,0.782
			c0.478-0.12,0.952-0.262,1.415-0.447c-0.221-0.488-0.029-1.065,0.454-1.312c0.479-0.244,1.056-0.061,1.323,0.399
			c0.415-0.261,0.817-0.549,1.202-0.87C8.62,9.992,8.624,9.386,9.006,9.004c0.381-0.381,0.987-0.386,1.384-0.028
			c0.321-0.385,0.61-0.788,0.87-1.202c-0.459-0.269-0.643-0.844-0.398-1.323c0.245-0.482,0.823-0.674,1.312-0.455
			c0.183-0.464,0.326-0.937,0.446-1.417c-0.517-0.114-0.864-0.603-0.782-1.132c0.085-0.529,0.566-0.886,1.092-0.836
			c0.034-0.496,0.034-0.991,0.002-1.486c-0.527,0.05-1.009-0.308-1.094-0.836c-0.014-0.083,0.002-0.159,0.01-0.237
			C8.978,0.491,6.219,1.8,4.01,4.009s-3.518,4.969-3.958,7.837c0.079-0.008,0.157-0.022,0.24-0.01
			C0.822,11.92,1.179,12.403,1.129,12.93z M16.143,17.568c-0.395-0.395-0.395-1.033,0-1.428c0.394-0.395,1.033-0.395,1.427,0
			l0.037,0.036c0.538-0.462,1.105-0.87,1.696-1.23l-0.024-0.048c-0.255-0.496-0.057-1.104,0.44-1.355
			c0.496-0.255,1.104-0.057,1.357,0.441l0.02,0.037c0.651-0.268,1.319-0.473,1.998-0.634l-0.009-0.058
			c-0.088-0.55,0.288-1.066,0.839-1.153c0.551-0.089,1.066,0.288,1.153,0.838l0.009,0.053c0.697-0.055,1.397-0.055,2.096,0.001
			l0.009-0.054c0.067-0.432,0.402-0.747,0.81-0.823c-0.383-2.991-1.71-5.885-4.008-8.183C21.694,1.712,18.802,0.385,15.81,0
			c-0.076,0.407-0.391,0.743-0.822,0.811l-0.056,0.008c0.058,0.698,0.057,1.398,0.002,2.097l0.053,0.009
			c0.55,0.087,0.927,0.604,0.839,1.153c-0.088,0.551-0.604,0.927-1.153,0.84l-0.059-0.01c-0.16,0.678-0.365,1.348-0.636,1.998
			l0.04,0.021c0.497,0.252,0.694,0.86,0.441,1.355c-0.253,0.498-0.86,0.695-1.357,0.441l-0.046-0.023
			c-0.361,0.59-0.77,1.157-1.232,1.695l0.038,0.037c0.394,0.395,0.393,1.033,0,1.428c-0.396,0.395-1.034,0.395-1.429,0l-0.036-0.036
			c-0.539,0.462-1.104,0.87-1.694,1.229L8.725,13.1c0.254,0.497,0.057,1.104-0.441,1.357c-0.495,0.253-1.103,0.057-1.356-0.441
			l-0.02-0.039c-0.65,0.27-1.318,0.476-1.997,0.637l0.009,0.055c0.088,0.552-0.288,1.066-0.839,1.155
			c-0.55,0.086-1.068-0.288-1.154-0.84l-0.008-0.051c-0.697,0.055-1.398,0.055-2.095,0l-0.008,0.051
			C0.746,15.417,0.409,15.731,0,15.808c0.386,2.992,1.712,5.886,4.01,8.184c2.298,2.297,5.192,3.624,8.184,4.009
			c0.075-0.408,0.391-0.746,0.824-0.814l0.051-0.008c-0.056-0.697-0.055-1.397,0.001-2.094l-0.052-0.009
			c-0.552-0.087-0.926-0.604-0.84-1.154c0.088-0.55,0.604-0.927,1.155-0.84l0.056,0.009c0.16-0.677,0.366-1.345,0.635-1.995
			l-0.037-0.021c-0.5-0.254-0.695-0.861-0.442-1.356c0.253-0.498,0.859-0.695,1.357-0.441l0.047,0.022
			c0.359-0.59,0.769-1.156,1.229-1.693L16.143,17.568z M26.878,15.07c-0.496-0.032-0.992-0.031-1.487,0.001
			c0.05,0.525-0.307,1.009-0.835,1.092c-0.53,0.084-1.02-0.265-1.134-0.781c-0.479,0.12-0.953,0.263-1.416,0.447
			c0.22,0.487,0.026,1.064-0.454,1.31s-1.057,0.062-1.323-0.397c-0.416,0.261-0.817,0.549-1.203,0.87
			c0.357,0.396,0.354,1.003-0.028,1.384c-0.382,0.382-0.988,0.387-1.384,0.029c-0.321,0.385-0.61,0.787-0.871,1.2
			c0.46,0.269,0.644,0.845,0.398,1.325c-0.246,0.481-0.822,0.674-1.311,0.453c-0.185,0.464-0.327,0.938-0.447,1.415
			c0.518,0.116,0.865,0.605,0.782,1.134c-0.084,0.53-0.566,0.887-1.093,0.837c-0.033,0.494-0.033,0.989,0,1.483
			c0.526-0.05,1.009,0.308,1.094,0.838c0.012,0.083-0.002,0.159-0.01,0.239c2.867-0.44,5.628-1.749,7.836-3.957
			c2.209-2.21,3.518-4.97,3.957-7.838c-0.077,0.007-0.154,0.022-0.235,0.01C27.186,16.08,26.828,15.597,26.878,15.07z"/>
	</g>
</g>
<g>
</g>
<g>
</g>
<g>
</g>
<g>
</g>
<g>
</g>
<g>
</g>
<g>
</g>
<g>
</g>
<g>
</g>
<g>
</g>
<g>
</g>
<g>
</g>
<g>
</g>
<g>
</g>
<g>
</g>
</svg>
