<?xml version="1.0" encoding="iso-8859-1"?>
<!-- Generator: Adobe Illustrator 16.0.4, SVG Export Plug-In . SVG Version: 6.00 Build 0)  -->
<!DOCTYPE svg PUBLIC "-//W3C//DTD SVG 1.1//EN" "http://www.w3.org/Graphics/SVG/1.1/DTD/svg11.dtd">
<svg version="1.1" id="Layer_1" xmlns="http://www.w3.org/2000/svg" xmlns:xlink="http://www.w3.org/1999/xlink" x="0px" y="0px"
	 width="28px" height="28px" viewBox="0 0 28 28" style="enable-background:new 0 0 28 28;" xml:space="preserve">
<g id="_x33_74-basketball.png">
	<g>
		<path d="M16.156,10.424c-1.328-1.532-2.357-3.398-2.939-5.569c-0.442-1.649-0.574-3.275-0.444-4.834
			C9.912,0.27,7.121,1.401,4.819,3.4l9.18,9.18L16.156,10.424z M10.439,16.141l2.142-2.142L3.4,4.818
			C1.403,7.12,0.271,9.91,0.021,12.77C3.773,12.459,7.566,13.665,10.439,16.141z M17.589,8.991l5.591-5.592
			C20.762,1.301,17.804,0.169,14.794,0c-0.139,1.395-0.038,2.854,0.359,4.336C15.639,6.146,16.495,7.698,17.589,8.991z M28,13.192
			c-0.173-3.005-1.305-5.96-3.401-8.374l-5.585,5.585C21.51,12.499,24.773,13.51,28,13.192z M17.574,11.843l-2.156,2.156
			l9.182,9.182c2.002-2.306,3.134-5.102,3.38-7.967C24.231,15.521,20.444,14.315,17.574,11.843z M11.857,17.56
			c1.328,1.532,2.357,3.397,2.938,5.567c0.443,1.655,0.574,3.287,0.443,4.851c2.856-0.251,5.643-1.383,7.941-3.378l-9.182-9.182
			L11.857,17.56z M0,14.79c0.169,3.011,1.301,5.971,3.4,8.391L9,17.58C6.501,15.48,3.231,14.47,0,14.79z M10.425,18.992
			l-5.606,5.606C7.24,26.7,10.203,27.832,13.217,28c0.142-1.4,0.041-2.866-0.357-4.354C12.375,21.837,11.518,20.285,10.425,18.992z"
			/>
	</g>
</g>
<g>
</g>
<g>
</g>
<g>
</g>
<g>
</g>
<g>
</g>
<g>
</g>
<g>
</g>
<g>
</g>
<g>
</g>
<g>
</g>
<g>
</g>
<g>
</g>
<g>
</g>
<g>
</g>
<g>
</g>
</svg>
