<?xml version="1.0" encoding="iso-8859-1"?>
<!-- Generator: Adobe Illustrator 16.0.4, SVG Export Plug-In . SVG Version: 6.00 Build 0)  -->
<!DOCTYPE svg PUBLIC "-//W3C//DTD SVG 1.1//EN" "http://www.w3.org/Graphics/SVG/1.1/DTD/svg11.dtd">
<svg version="1.1" id="Layer_1" xmlns="http://www.w3.org/2000/svg" xmlns:xlink="http://www.w3.org/1999/xlink" x="0px" y="0px"
	 width="24px" height="26px" viewBox="0 0 24 26" style="enable-background:new 0 0 24 26;" xml:space="preserve">
<g id="_x33_86-server-rack.png">
	<g>
		<path d="M23,13H1c-0.553,0-1,0.447-1,1v4c0,0.553,0.447,1,1,1h22c0.553,0,1-0.447,1-1v-4C24,13.447,23.553,13,23,13z M2,18
			c-0.553,0-1-0.447-1-1s0.447-1,1-1s1,0.447,1,1S2.553,18,2,18z M19,0H5L0,5h24L19,0z M23,20H1c-0.553,0-1,0.447-1,1v4
			c0,0.553,0.447,1,1,1h22c0.553,0,1-0.447,1-1v-4C24,20.447,23.553,20,23,20z M2,25c-0.553,0-1-0.447-1-1s0.447-1,1-1s1,0.447,1,1
			S2.553,25,2,25z M23,6H1C0.447,6,0,6.447,0,7v4c0,0.553,0.447,1,1,1h22c0.553,0,1-0.447,1-1V7C24,6.447,23.553,6,23,6z M2,11
			c-0.553,0-1-0.447-1-1s0.447-1,1-1s1,0.447,1,1S2.553,11,2,11z"/>
	</g>
</g>
<g>
</g>
<g>
</g>
<g>
</g>
<g>
</g>
<g>
</g>
<g>
</g>
<g>
</g>
<g>
</g>
<g>
</g>
<g>
</g>
<g>
</g>
<g>
</g>
<g>
</g>
<g>
</g>
<g>
</g>
</svg>
