<?xml version="1.0" encoding="iso-8859-1"?>
<!-- Generator: Adobe Illustrator 16.0.4, SVG Export Plug-In . SVG Version: 6.00 Build 0)  -->
<!DOCTYPE svg PUBLIC "-//W3C//DTD SVG 1.1//EN" "http://www.w3.org/Graphics/SVG/1.1/DTD/svg11.dtd">
<svg version="1.1" id="Layer_1" xmlns="http://www.w3.org/2000/svg" xmlns:xlink="http://www.w3.org/1999/xlink" x="0px" y="0px"
	 width="28px" height="24px" viewBox="0 0 28 24" style="enable-background:new 0 0 28 24;" xml:space="preserve">
<g id="_x33_93-sofa.png">
	<g>
		<path d="M3,9c-1.656,0-3,1.343-3,3c0,1.305,0.838,2.403,2.001,2.816V22c0,1.104,0.896,2,2,2s2-0.896,2-2V12H6
			C6,10.343,4.657,9,3,9z M7.001,21c0,0.553,0.447,1,1,1h12c0.552,0,1-0.447,1-1v-4h-14V21z M25,9c-1.656,0-3,1.343-3,3v10
			c0,1.104,0.896,2,2,2s2-0.896,2-2v-7.184c1.162-0.413,2-1.512,2-2.816C28,10.343,26.657,9,25,9z M25,8V7c0,0-1.999-7-10.999-7
			S3,7,3,7v1c1.858,0,3.411,1.279,3.857,3h14.285C21.59,9.279,23.142,8,25,8z M20.001,12h-12c-0.553,0-1,0.447-1,1v3h14v-3
			C21.001,12.447,20.553,12,20.001,12z"/>
	</g>
</g>
<g>
</g>
<g>
</g>
<g>
</g>
<g>
</g>
<g>
</g>
<g>
</g>
<g>
</g>
<g>
</g>
<g>
</g>
<g>
</g>
<g>
</g>
<g>
</g>
<g>
</g>
<g>
</g>
<g>
</g>
</svg>
