<?xml version="1.0" encoding="iso-8859-1"?>
<!-- Generator: Adobe Illustrator 16.0.4, SVG Export Plug-In . SVG Version: 6.00 Build 0)  -->
<!DOCTYPE svg PUBLIC "-//W3C//DTD SVG 1.1//EN" "http://www.w3.org/Graphics/SVG/1.1/DTD/svg11.dtd">
<svg version="1.1" id="Layer_1" xmlns="http://www.w3.org/2000/svg" xmlns:xlink="http://www.w3.org/1999/xlink" x="0px" y="0px"
	 width="30px" height="27.937px" viewBox="0 0 30 27.937" style="enable-background:new 0 0 30 27.937;" xml:space="preserve">
<g id="_x33_95-navigation.png">
	<g>
		<path d="M29.566,8.192L17.57,0.168C17.212-0.068,16.734-0.054,16.39,0.2c-0.346,0.253-0.479,0.691-0.329,1.081l1.798,4.705H4
			c-2.209,0-4,1.787-4,3.991v15.964c0,1.104,0.896,1.996,2,1.996h2c1.104,0,2-0.893,2-1.996V11.973h11.858l-1.798,4.706
			c-0.149,0.39-0.017,0.828,0.329,1.081c0.345,0.254,0.822,0.268,1.181,0.031l11.996-8.024C29.838,9.587,30,9.295,30,8.98
			C30,8.664,29.838,8.372,29.566,8.192z"/>
	</g>
</g>
<g>
</g>
<g>
</g>
<g>
</g>
<g>
</g>
<g>
</g>
<g>
</g>
<g>
</g>
<g>
</g>
<g>
</g>
<g>
</g>
<g>
</g>
<g>
</g>
<g>
</g>
<g>
</g>
<g>
</g>
</svg>
