<?xml version="1.0" encoding="iso-8859-1"?>
<!-- Generator: Adobe Illustrator 16.0.4, SVG Export Plug-In . SVG Version: 6.00 Build 0)  -->
<!DOCTYPE svg PUBLIC "-//W3C//DTD SVG 1.1//EN" "http://www.w3.org/Graphics/SVG/1.1/DTD/svg11.dtd">
<svg version="1.1" id="Layer_1" xmlns="http://www.w3.org/2000/svg" xmlns:xlink="http://www.w3.org/1999/xlink" x="0px" y="0px"
	 width="26px" height="27.043px" viewBox="0 0 26 27.043" style="enable-background:new 0 0 26 27.043;" xml:space="preserve">
<g id="_x33_97-self-timer.png">
	<g>
		<path d="M12.006,15.833c0.781,0.782,2.046,0.782,2.827,0.001c0.782-0.781,0.782-2.047,0-2.829l-0.39-0.296L5.287,5.581L4.58,6.288
			l7.128,9.156L12.006,15.833z M13,4c1.104,0,2-0.896,2-2s-0.896-2-2-2s-2,0.896-2,2S11.896,4,13,4z M24.259,7.543
			c-1.357-2.35-3.386-4.173-5.765-5.282l-1.268,2.719c1.829,0.854,3.39,2.256,4.434,4.063c1.786,3.094,1.786,6.906,0,10
			s-5.088,5-8.66,5s-6.874-1.906-8.66-5s-1.786-6.906,0-10l-2.599-1.5c-2.321,4.022-2.321,8.978,0,13
			c2.322,4.022,6.614,6.5,11.259,6.5s8.937-2.478,11.259-6.5C26.58,16.521,26.58,11.565,24.259,7.543z"/>
	</g>
</g>
<g>
</g>
<g>
</g>
<g>
</g>
<g>
</g>
<g>
</g>
<g>
</g>
<g>
</g>
<g>
</g>
<g>
</g>
<g>
</g>
<g>
</g>
<g>
</g>
<g>
</g>
<g>
</g>
<g>
</g>
</svg>
