<?xml version="1.0" encoding="iso-8859-1"?>
<!-- Generator: Adobe Illustrator 16.0.4, SVG Export Plug-In . SVG Version: 6.00 Build 0)  -->
<!DOCTYPE svg PUBLIC "-//W3C//DTD SVG 1.1//EN" "http://www.w3.org/Graphics/SVG/1.1/DTD/svg11.dtd">
<svg version="1.1" id="Layer_1" xmlns="http://www.w3.org/2000/svg" xmlns:xlink="http://www.w3.org/1999/xlink" x="0px" y="0px"
	 width="21px" height="15px" viewBox="0 0 21 15" style="enable-background:new 0 0 21 15;" xml:space="preserve">
<g id="_x34_00-list2.png">
	<g>
		<path d="M1.5,6C0.671,6,0,6.672,0,7.5S0.671,9,1.5,9S3,8.328,3,7.5S2.329,6,1.5,6z M1.5,12C0.671,12,0,12.672,0,13.5
			S0.671,15,1.5,15S3,14.328,3,13.5S2.329,12,1.5,12z M6.5,3h13C20.329,3,21,2.328,21,1.5S20.329,0,19.5,0h-13
			C5.671,0,5,0.672,5,1.5S5.671,3,6.5,3z M19.5,12h-13C5.671,12,5,12.672,5,13.5S5.671,15,6.5,15h13c0.829,0,1.5-0.672,1.5-1.5
			S20.329,12,19.5,12z M1.5,0C0.671,0,0,0.672,0,1.5S0.671,3,1.5,3S3,2.328,3,1.5S2.329,0,1.5,0z M19.5,6h-13C5.671,6,5,6.672,5,7.5
			S5.671,9,6.5,9h13C20.329,9,21,8.328,21,7.5S20.329,6,19.5,6z"/>
	</g>
</g>
<g>
</g>
<g>
</g>
<g>
</g>
<g>
</g>
<g>
</g>
<g>
</g>
<g>
</g>
<g>
</g>
<g>
</g>
<g>
</g>
<g>
</g>
<g>
</g>
<g>
</g>
<g>
</g>
<g>
</g>
</svg>
