<?xml version="1.0" encoding="iso-8859-1"?>
<!-- Generator: Adobe Illustrator 16.0.4, SVG Export Plug-In . SVG Version: 6.00 Build 0)  -->
<!DOCTYPE svg PUBLIC "-//W3C//DTD SVG 1.1//EN" "http://www.w3.org/Graphics/SVG/1.1/DTD/svg11.dtd">
<svg version="1.1" id="Layer_1" xmlns="http://www.w3.org/2000/svg" xmlns:xlink="http://www.w3.org/1999/xlink" x="0px" y="0px"
	 width="28px" height="28px" viewBox="0 0 28 28" style="enable-background:new 0 0 28 28;" xml:space="preserve">
<g id="_x34_03-coffee-mug.png">
	<g>
		<path d="M22,7.038V6c-0.001-3.313-4.925-6-11-6S0.001,2.687,0,6v16c0,3.313,4.925,6,11,6s11-2.687,11-6v-0.038
			c5.988-0.38,6-4.214,6-7.462S27.988,7.419,22,7.038z M11,9C6.582,9,3,7.657,3,6c0-1.656,3.582-3,8-3s8,1.344,8,3
			C19,7.657,15.418,9,11,9z M22,18.956v-8.911c3.41,0.292,3,2.161,3,4.455C25,16.795,25.41,18.663,22,18.956z"/>
	</g>
</g>
<g>
</g>
<g>
</g>
<g>
</g>
<g>
</g>
<g>
</g>
<g>
</g>
<g>
</g>
<g>
</g>
<g>
</g>
<g>
</g>
<g>
</g>
<g>
</g>
<g>
</g>
<g>
</g>
<g>
</g>
</svg>
