<?xml version="1.0" encoding="iso-8859-1"?>
<!-- Generator: Adobe Illustrator 16.0.4, SVG Export Plug-In . SVG Version: 6.00 Build 0)  -->
<!DOCTYPE svg PUBLIC "-//W3C//DTD SVG 1.1//EN" "http://www.w3.org/Graphics/SVG/1.1/DTD/svg11.dtd">
<svg version="1.1" id="Layer_1" xmlns="http://www.w3.org/2000/svg" xmlns:xlink="http://www.w3.org/1999/xlink" x="0px" y="0px"
	 width="28px" height="28px" viewBox="0 0 28 28" style="enable-background:new 0 0 28 28;" xml:space="preserve">
<g id="_x34_08-screen-sharing.png">
	<g>
		<path d="M7,20H1c-0.553,0-1,0.448-1,1v6c0,0.553,0.447,1,1,1h6c0.553,0,1-0.447,1-1v-6C8,20.448,7.553,20,7,20z M6,26H2v-4h4V26z
			 M17,20h-6c-0.553,0-1,0.448-1,1v6c0,0.553,0.447,1,1,1h6c0.553,0,1-0.447,1-1v-6C18,20.448,17.553,20,17,20z M16,26h-4v-4h4V26z
			 M27,20h-6c-0.553,0-1,0.448-1,1v6c0,0.553,0.447,1,1,1h6c0.553,0,1-0.447,1-1v-6C28,20.448,27.553,20,27,20z M26,26h-4v-4h4V26z
			 M22,18h4v-4l-1.293,1.293L21.414,12H23c0.553,0,1-0.447,1-1V1c0-0.553-0.447-1-1-1H5C4.447,0,4,0.447,4,1v10c0,0.553,0.447,1,1,1
			h1.586l-3.293,3.293L2,14v4h4l-1.293-1.293L9.414,12H13v4h-2l3,3l3-3h-2v-4h3.586l4.707,4.707L22,18z M6,10V2h16v8H6z"/>
	</g>
</g>
<g>
</g>
<g>
</g>
<g>
</g>
<g>
</g>
<g>
</g>
<g>
</g>
<g>
</g>
<g>
</g>
<g>
</g>
<g>
</g>
<g>
</g>
<g>
</g>
<g>
</g>
<g>
</g>
<g>
</g>
</svg>
