<?xml version="1.0" encoding="iso-8859-1"?>
<!-- Generator: Adobe Illustrator 16.0.4, SVG Export Plug-In . SVG Version: 6.00 Build 0)  -->
<!DOCTYPE svg PUBLIC "-//W3C//DTD SVG 1.1//EN" "http://www.w3.org/Graphics/SVG/1.1/DTD/svg11.dtd">
<svg version="1.1" id="Layer_1" xmlns="http://www.w3.org/2000/svg" xmlns:xlink="http://www.w3.org/1999/xlink" x="0px" y="0px"
	 width="28px" height="28px" viewBox="0 0 28 28" style="enable-background:new 0 0 28 28;" xml:space="preserve">
<g id="_x34_16-chefs-hat.png">
	<g>
		<path d="M5,28h18v-2H5V28z M23,2c-1.368,0-2.607,0.606-3.51,1.586C18.561,1.475,16.454,0,14,0S9.439,1.475,8.51,3.586
			C7.607,2.606,6.368,2,5,2C2.238,2,0,4.463,0,7.5c0,3.038,2.238,5.501,5,5.501V24h18V13.001c2.762,0,5-2.463,5-5.501
			C28,4.463,25.762,2,23,2z M10,21c0,0.553-0.447,1-1,1s-1-0.447-1-1v-5c0-0.552,0.447-1,1-1s1,0.448,1,1V21z M15,21
			c0,0.553-0.447,1-1,1s-1-0.447-1-1v-5c0-0.552,0.447-1,1-1s1,0.448,1,1V21z M20,21c0,0.553-0.447,1-1,1s-1-0.447-1-1v-5
			c0-0.552,0.447-1,1-1s1,0.448,1,1V21z"/>
	</g>
</g>
<g>
</g>
<g>
</g>
<g>
</g>
<g>
</g>
<g>
</g>
<g>
</g>
<g>
</g>
<g>
</g>
<g>
</g>
<g>
</g>
<g>
</g>
<g>
</g>
<g>
</g>
<g>
</g>
<g>
</g>
</svg>
