<?xml version="1.0" encoding="iso-8859-1"?>
<!-- Generator: Adobe Illustrator 16.0.4, SVG Export Plug-In . SVG Version: 6.00 Build 0)  -->
<!DOCTYPE svg PUBLIC "-//W3C//DTD SVG 1.1//EN" "http://www.w3.org/Graphics/SVG/1.1/DTD/svg11.dtd">
<svg version="1.1" id="Layer_1" xmlns="http://www.w3.org/2000/svg" xmlns:xlink="http://www.w3.org/1999/xlink" x="0px" y="0px"
	 width="28px" height="28px" viewBox="0 0 28 28" style="enable-background:new 0 0 28 28;" xml:space="preserve">
<g id="_x34_53-dollars2.png">
	<g>
		<path d="M15.038,12.606c-2.076-0.831-2.959-1.394-2.959-2.396c0-0.832,0.61-1.711,2.322-1.711c1.662,0,2.737,0.562,3.323,0.831
			l0.657-2.25C17.599,6.689,17,6.323,15,6.274V4h-2v2.396c-2,0.439-3.929,2.055-3.929,4.156c0,2.273,1.669,3.447,4.235,4.377
			c1.81,0.66,2.671,1.368,2.671,2.47c0,1.173-1.043,1.932-2.584,1.932c-1.491,0-2.844-0.515-3.798-1.076l-0.624,2.298
			C9.853,21.141,11,21.58,13,21.629V24h2v-2.519c3-0.44,4.066-2.273,4.066-4.352C19.066,14.954,17.778,13.634,15.038,12.606z M14,0
			C3.019,0,0,3.018,0,14s2.981,14,14,14s14-2.982,14-14S24.981,0,14,0z M14,26C4.131,26,2,23.869,2,14S4.131,2,14,2s12,2.131,12,12
			S23.869,26,14,26z"/>
	</g>
</g>
<g>
</g>
<g>
</g>
<g>
</g>
<g>
</g>
<g>
</g>
<g>
</g>
<g>
</g>
<g>
</g>
<g>
</g>
<g>
</g>
<g>
</g>
<g>
</g>
<g>
</g>
<g>
</g>
<g>
</g>
</svg>
