<?xml version="1.0" encoding="iso-8859-1"?>
<!-- Generator: Adobe Illustrator 16.0.4, SVG Export Plug-In . SVG Version: 6.00 Build 0)  -->
<!DOCTYPE svg PUBLIC "-//W3C//DTD SVG 1.1//EN" "http://www.w3.org/Graphics/SVG/1.1/DTD/svg11.dtd">
<svg version="1.1" id="Layer_1" xmlns="http://www.w3.org/2000/svg" xmlns:xlink="http://www.w3.org/1999/xlink" x="0px" y="0px"
	 width="28px" height="28px" viewBox="0 0 28 28" style="enable-background:new 0 0 28 28;" xml:space="preserve">
<g id="_x34_58-sd2.png">
	<g>
		<path d="M9.203,12.715c-1.814-0.464-2.265-0.689-2.265-1.379v-0.03c0-0.511,0.465-0.915,1.35-0.915
			c0.721,0,1.44,0.255,2.205,0.705c0.18,0.104,0.36,0.165,0.585,0.165c0.601,0,1.08-0.466,1.08-1.065
			c0-0.449-0.255-0.765-0.51-0.915c-0.945-0.6-2.055-0.93-3.33-0.93c-2.145,0-3.675,1.26-3.675,3.165v0.029
			c0,2.086,1.365,2.67,3.479,3.211c1.755,0.449,2.115,0.75,2.115,1.334v0.03c0,0.614-0.57,0.99-1.515,0.99
			c-1.021,0-1.891-0.36-2.686-0.945c-0.149-0.104-0.359-0.21-0.659-0.21c-0.601,0-1.08,0.465-1.08,1.064
			c0,0.36,0.18,0.69,0.435,0.871c1.17,0.84,2.565,1.26,3.945,1.26c2.265,0,3.854-1.17,3.854-3.256v-0.029
			C12.533,14.035,11.333,13.271,9.203,12.715z M18.59,8.501H15.65c-0.646,0-1.155,0.51-1.155,1.154v8.19
			c0,0.645,0.51,1.154,1.155,1.154h2.939c3.3,0,5.58-2.295,5.58-5.25v-0.029C24.17,10.766,21.89,8.501,18.59,8.501z M21.755,13.78
			c0,1.859-1.274,3.135-3.165,3.135h-1.784v-6.329h1.784c1.891,0,3.165,1.304,3.165,3.164V13.78z M14,0C3.019,0,0,3.018,0,14
			s2.981,14,14,14s14-2.982,14-14S24.981,0,14,0z M14,26C4.131,26,2,23.869,2,14S4.131,2,14,2s12,2.131,12,12S23.869,26,14,26z"/>
	</g>
</g>
<g>
</g>
<g>
</g>
<g>
</g>
<g>
</g>
<g>
</g>
<g>
</g>
<g>
</g>
<g>
</g>
<g>
</g>
<g>
</g>
<g>
</g>
<g>
</g>
<g>
</g>
<g>
</g>
<g>
</g>
</svg>
